CXXFLAGS =  -DUSE_OCCA_MEM_BYTE_ALIGN=32 -DOCCA_VERSION_1_0=1 -O2 -mavx2 -ftree-vectorize -march=native -DUSE_NULL_PROJECTION=1
#-DUSE_MASTER_NOEL=1
#-DUSE_NULL_PROJECT=1
#-DUSE_NULL_BOOST=1
#-DUSE_NULL_PROJECT=1 
#-DUSE_NULL_BOOST=1

# GNU
LIBP_OPT_FLAGS = -DUSE_OCCA_MEM_BYTE_ALIGN=32 -O2 -mavx2 -ftree-vectorize -march=native
LIBP_EXT_LIBS = -lBlasLapack
#-O2 -funroll-all-loops -mavx2 -ftree-vectorize -march=native 

ENABLE_HYPRE=0
